\relax 
\select@language{english}
\@writefile{toc}{\select@language{english}}
\@writefile{lof}{\select@language{english}}
\@writefile{lot}{\select@language{english}}
\@writefile{toc}{\contentsline {title}{Tema Finale isslm2014BO\unskip \ \ignorespaces Parte 1}{1}}
\@writefile{toc}{\authcount {4}}
\@writefile{toc}{\contentsline {author}{Arianna Zanetti\and Alessio Tonioni\and Alessio Paccoia\and Mirco Nani}{1}}
\@writefile{toc}{\contentsline {section}{\numberline {1}Introduzione}{1}}
\newlabel{sec:intro}{{1}{1}}
\@writefile{toc}{\contentsline {section}{\numberline {2}Visione}{1}}
\newlabel{sec:vision}{{2}{1}}
\@writefile{toc}{\contentsline {section}{\numberline {3}Obiettivi}{1}}
\newlabel{sec:goal}{{3}{1}}
\@writefile{toc}{\contentsline {section}{\numberline {4}Requisiti}{1}}
\newlabel{sec:requirement}{{4}{1}}
\@writefile{toc}{\contentsline {section}{\numberline {5}Analisi dei requisiti}{2}}
\newlabel{sec:ReqAnalysis}{{5}{2}}
\@writefile{toc}{\contentsline {subsection}{\numberline {5.1}Casi d'uso}{2}}
\newlabel{ssec:UseCases}{{5.1}{2}}
\@writefile{toc}{\contentsline {subsection}{\numberline {5.2}Scenari}{3}}
\newlabel{ssec:Scenarios}{{5.2}{3}}
\@writefile{toc}{\contentsline {subsection}{\numberline {5.3}Glossario}{3}}
\newlabel{sec:Glossa}{{5.3}{3}}
\@writefile{toc}{\contentsline {subsection}{\numberline {5.4}Modello del Dominio}{4}}
\newlabel{sec:DM}{{5.4}{4}}
\@writefile{toc}{\contentsline {subsection}{\numberline {5.5}Test plan}{5}}
\newlabel{sec:test}{{5.5}{5}}
\@writefile{toc}{\contentsline {section}{\numberline {6}Analisi del Problema}{6}}
\newlabel{sec:ProblemAnalysis}{{6}{6}}
\@writefile{toc}{\contentsline {subsection}{\numberline {6.1}Architettura Logica}{6}}
\newlabel{sec:LA}{{6.1}{6}}
\@writefile{toc}{\contentsline {subsection}{\numberline {6.2}Abstraction gap}{7}}
\newlabel{sec:Ag}{{6.2}{7}}
\@writefile{toc}{\contentsline {section}{\numberline {7}Work plan}{8}}
\newlabel{sec:wplan}{{7}{8}}
\@writefile{toc}{\contentsline {section}{\numberline {8}Progetto}{8}}
\newlabel{sec:Project}{{8}{8}}
\@writefile{toc}{\contentsline {subsection}{\numberline {8.1}Struttura}{8}}
\newlabel{sec:struct}{{8.1}{8}}
\@writefile{toc}{\contentsline {subsection}{\numberline {8.2}Interazioni}{9}}
\newlabel{sec:inter}{{8.2}{9}}
\@writefile{toc}{\contentsline {subsection}{\numberline {8.3}Comportamento}{9}}
\newlabel{sec:behav}{{8.3}{9}}
\@writefile{toc}{\contentsline {section}{\numberline {9}Implementazione}{12}}
\newlabel{sec:Implementation}{{9}{12}}
\@writefile{toc}{\contentsline {section}{\numberline {10}Test}{13}}
\newlabel{sec:Testing}{{10}{13}}
\@writefile{toc}{\contentsline {section}{\numberline {11}Deployment}{13}}
\newlabel{sec:Deployment}{{11}{13}}
\@writefile{toc}{\contentsline {section}{\numberline {12}Manutenzione}{13}}
\newlabel{sec:Maintenance}{{12}{13}}
\@writefile{toc}{\contentsline {section}{\numberline {13}Informazioni sull'autore}{13}}
\newlabel{sec:Auth}{{13}{13}}
