\relax 
\select@language{english}
\@writefile{toc}{\select@language{english}}
\@writefile{lof}{\select@language{english}}
\@writefile{lot}{\select@language{english}}
\@writefile{toc}{\contentsline {title}{Tema Finale isslm2014BO\unskip \ \ignorespaces Parte II}{1}}
\@writefile{toc}{\authcount {4}}
\@writefile{toc}{\contentsline {author}{Arianna Zanetti\and Alessio Tonioni\and Alessio Paccoia\and Mirco Nani}{1}}
\@writefile{toc}{\contentsline {section}{\numberline {1}Introduzione}{1}}
\newlabel{sec:intro}{{1}{1}}
\@writefile{toc}{\contentsline {section}{\numberline {2}Visione}{1}}
\newlabel{sec:vision}{{2}{1}}
\@writefile{toc}{\contentsline {section}{\numberline {3}Obiettivi}{1}}
\newlabel{sec:goal}{{3}{1}}
\@writefile{toc}{\contentsline {section}{\numberline {4}Requisiti}{1}}
\newlabel{sec:requirement}{{4}{1}}
\@writefile{toc}{\contentsline {section}{\numberline {5}Analisi dei requisiti}{2}}
\newlabel{sec:ReqAnalysis}{{5}{2}}
\@writefile{toc}{\contentsline {subsection}{\numberline {5.1}Casi d'uso}{2}}
\newlabel{ssec:UseCases}{{5.1}{2}}
\@writefile{toc}{\contentsline {subsection}{\numberline {5.2}Scenari}{4}}
\newlabel{ssec:Scenarios}{{5.2}{4}}
\@writefile{toc}{\contentsline {subsection}{\numberline {5.3}Glossario}{4}}
\newlabel{sec:Glossa}{{5.3}{4}}
\@writefile{toc}{\contentsline {subsection}{\numberline {5.4}Modello del Dominio}{5}}
\newlabel{sec:DM}{{5.4}{5}}
\@writefile{toc}{\contentsline {subsection}{\numberline {5.5}Test plan}{6}}
\newlabel{sec:test}{{5.5}{6}}
\@writefile{toc}{\contentsline {section}{\numberline {6}Analisi del Problema}{8}}
\newlabel{sec:ProblemAnalysis}{{6}{8}}
\@writefile{toc}{\contentsline {subsection}{\numberline {6.1}Architettura Logica}{8}}
\newlabel{sec:LA}{{6.1}{8}}
\@writefile{toc}{\contentsline {subsection}{\numberline {6.2}Abstraction gap}{9}}
\newlabel{sec:Ag}{{6.2}{9}}
\@writefile{toc}{\contentsline {section}{\numberline {7}Work plan}{9}}
\newlabel{sec:wplan}{{7}{9}}
\@writefile{toc}{\contentsline {section}{\numberline {8}Progetto}{9}}
\newlabel{sec:Project}{{8}{9}}
\@writefile{toc}{\contentsline {subsection}{\numberline {8.1}Struttura}{9}}
\newlabel{sec:struct}{{8.1}{9}}
\@writefile{toc}{\contentsline {subsection}{\numberline {8.2}Interazioni}{10}}
\newlabel{sec:inter}{{8.2}{10}}
\@writefile{toc}{\contentsline {subsection}{\numberline {8.3}Comportamento}{11}}
\newlabel{sec:behav}{{8.3}{11}}
\@writefile{toc}{\contentsline {section}{\numberline {9}Implementazione}{19}}
\newlabel{sec:Implementation}{{9}{19}}
\@writefile{toc}{\contentsline {section}{\numberline {10}Test}{19}}
\newlabel{sec:Testing}{{10}{19}}
\@writefile{toc}{\contentsline {section}{\numberline {11}Deployment}{20}}
\newlabel{sec:Deployment}{{11}{20}}
\@writefile{toc}{\contentsline {section}{\numberline {12}Manutenzione}{20}}
\newlabel{sec:Maintenance}{{12}{20}}
\@writefile{toc}{\contentsline {section}{\numberline {13}Informazioni sull'autore}{20}}
\newlabel{sec:Auth}{{13}{20}}
\@writefile{toc}{\contentsline {section}{\numberline {14}Bibliografia:}{20}}
\newlabel{sec:Biblio}{{14}{20}}
